---
http_interactions:
- request:
    method: get
    uri: https://www.flickr.com/services/rest/?api_key=5b48d1bc95a93593f2964f466bab5a4d&format=json&geo_context=2&lat=39.738453&license=0&lon=-104.984853&method=flickr.photos.search&nojsoncallback=1&per_page=1&radius=10&radius_units=10&tags=denver%20skyline
    body:
      encoding: US-ASCII
      string: ''
    headers:
      User-Agent:
      - Faraday v1.4.1
      Accept-Encoding:
      - gzip;q=1.0,deflate;q=0.6,identity;q=0.3
      Accept:
      - "*/*"
  response:
    status:
      code: 200
      message: OK
    headers:
      Content-Type:
      - application/json
      Content-Length:
      - '275'
      Connection:
      - keep-alive
      Date:
      - Mon, 26 Apr 2021 04:51:37 GMT
      Server:
      - Apache/2.4.46 (Ubuntu)
      Set-Cookie:
      - ccc=%7B%22needsConsent%22%3Afalse%2C%22managed%22%3A0%2C%22changed%22%3A0%2C%22info%22%3A%7B%22cookieBlock%22%3A%7B%22level%22%3A0%2C%22blockRan%22%3A0%7D%7D%7D;
        expires=Wed, 26-May-2021 04:51:37 GMT; Max-Age=2592000; path=/; domain=.flickr.com
      X-Content-Type-Options:
      - nosniff
      X-Frame-Options:
      - SAMEORIGIN
      X-Cache:
      - Miss from cloudfront
      Via:
      - 1.1 b355b23fdbed3c58c37ede4924bc4602.cloudfront.net (CloudFront)
      X-Amz-Cf-Pop:
      - ORD53-C2
      X-Amz-Cf-Id:
      - DgEzOs1i8PBXVQGxRRYC5_IvS9Joz2ePOsJmofaq81WLQHSqfXXh5w==
    body:
      encoding: UTF-8
      string: '{"photos":{"page":1,"pages":214,"perpage":1,"total":"214","photo":[{"id":"50948688121","owner":"91357526@N00","secret":"7511ec5d52","server":"65535","farm":66,"title":"Denver
        at Early Evening (6.46pm Pano), 15 July 2020","ispublic":1,"isfriend":0,"isfamily":0}]},"stat":"ok"}'
  recorded_at: Mon, 26 Apr 2021 04:51:37 GMT
- request:
    method: get
    uri: https://www.flickr.com/services/rest/?api_key=5b48d1bc95a93593f2964f466bab5a4d&format=json&method=flickr.urls.getUserProfile&nojsoncallback=1&user_id=91357526@N00
    body:
      encoding: US-ASCII
      string: ''
    headers:
      User-Agent:
      - Faraday v1.4.1
      Accept-Encoding:
      - gzip;q=1.0,deflate;q=0.6,identity;q=0.3
      Accept:
      - "*/*"
  response:
    status:
      code: 200
      message: OK
    headers:
      Content-Type:
      - application/json
      Content-Length:
      - '108'
      Connection:
      - keep-alive
      Date:
      - Mon, 26 Apr 2021 04:51:37 GMT
      Server:
      - Apache/2.4.46 (Ubuntu)
      Set-Cookie:
      - ccc=%7B%22needsConsent%22%3Afalse%2C%22managed%22%3A0%2C%22changed%22%3A0%2C%22info%22%3A%7B%22cookieBlock%22%3A%7B%22level%22%3A0%2C%22blockRan%22%3A0%7D%7D%7D;
        expires=Wed, 26-May-2021 04:51:37 GMT; Max-Age=2592000; path=/; domain=.flickr.com
      X-Content-Type-Options:
      - nosniff
      X-Frame-Options:
      - SAMEORIGIN
      X-Cache:
      - Miss from cloudfront
      Via:
      - 1.1 d23c384447496d3b595a94b6748c57c3.cloudfront.net (CloudFront)
      X-Amz-Cf-Pop:
      - ORD53-C2
      X-Amz-Cf-Id:
      - w52TmIKCXXwMg8lDIRaibJZznVb_a9QX_BPxIcrEQqUBpP1RzMjzdw==
    body:
      encoding: UTF-8
      string: '{"user":{"nsid":"91357526@N00","url":"https:\/\/www.flickr.com\/people\/rock_chalk_jhawk_ku\/"},"stat":"ok"}'
  recorded_at: Mon, 26 Apr 2021 04:51:37 GMT
recorded_with: VCR 6.0.0
