---
http_interactions:
- request:
    method: get
    uri: http://www.mapquestapi.com/geocoding/v1/address?key=WUQ2Q6vYE3wrcpG89fvDzsDAo7A0vATq&location=denver,co
    body:
      encoding: US-ASCII
      string: ''
    headers:
      User-Agent:
      - Faraday v1.4.1
      Accept-Encoding:
      - gzip;q=1.0,deflate;q=0.6,identity;q=0.3
      Accept:
      - "*/*"
  response:
    status:
      code: 200
      message: OK
    headers:
      Date:
      - Thu, 06 May 2021 17:28:07 GMT
      Content-Type:
      - application/json;charset=UTF-8
      Content-Length:
      - '1734'
      Access-Control-Allow-Methods:
      - OPTIONS,GET,POST
      Access-Control-Allow-Origin:
      - "*"
      Cache-Control:
      - no-cache, must-revalidate
      Expires:
      - Mon, 20 Dec 1998 01:00:00 GMT
      Geocodetransactioncount:
      - '1'
      Last-Modified:
      - Thu, 06 May 2021 17:28:07 GMT
      Pragma:
      - no-cache
      Reversegeocodetransactioncount:
      - '0'
      Server:
      - Apache-Coyote/1.1
      Set-Cookie:
      - JSESSIONID=67F38010D902B9DF33B190D337E2DE85; Path=/; HttpOnly
      Status:
      - success
      Transactionweight:
      - '1.0'
    body:
      encoding: UTF-8
      string: '{"info":{"statuscode":0,"copyright":{"text":"\u00A9 2021 MapQuest,
        Inc.","imageUrl":"http://api.mqcdn.com/res/mqlogo.gif","imageAltText":"\u00A9
        2021 MapQuest, Inc."},"messages":[]},"options":{"maxResults":-1,"thumbMaps":true,"ignoreLatLngInput":false},"results":[{"providedLocation":{"location":"denver,co"},"locations":[{"street":"","adminArea6":"","adminArea6Type":"Neighborhood","adminArea5":"Denver","adminArea5Type":"City","adminArea4":"Denver
        County","adminArea4Type":"County","adminArea3":"CO","adminArea3Type":"State","adminArea1":"US","adminArea1Type":"Country","postalCode":"","geocodeQualityCode":"A5XAX","geocodeQuality":"CITY","dragPoint":false,"sideOfStreet":"N","linkId":"282041090","unknownInput":"","type":"s","latLng":{"lat":39.738453,"lng":-104.984853},"displayLatLng":{"lat":39.738453,"lng":-104.984853},"mapUrl":"http://www.mapquestapi.com/staticmap/v5/map?key=WUQ2Q6vYE3wrcpG89fvDzsDAo7A0vATq&type=map&size=225,160&locations=39.738453,-104.984853|marker-sm-50318A-1&scalebar=true&zoom=12&rand=-1844007819"},{"street":"","adminArea6":"","adminArea6Type":"Neighborhood","adminArea5":"","adminArea5Type":"City","adminArea4":"Denver
        County","adminArea4Type":"County","adminArea3":"CO","adminArea3Type":"State","adminArea1":"US","adminArea1Type":"Country","postalCode":"","geocodeQualityCode":"A4XAX","geocodeQuality":"COUNTY","dragPoint":false,"sideOfStreet":"N","linkId":"282932003","unknownInput":"","type":"s","latLng":{"lat":39.738453,"lng":-104.984853},"displayLatLng":{"lat":39.738453,"lng":-104.984853},"mapUrl":"http://www.mapquestapi.com/staticmap/v5/map?key=WUQ2Q6vYE3wrcpG89fvDzsDAo7A0vATq&type=map&size=225,160&locations=39.738453,-104.984853|marker-sm-50318A-2&scalebar=true&zoom=9&rand=318277562"}]}]}'
  recorded_at: Thu, 06 May 2021 17:28:07 GMT
- request:
    method: get
    uri: https://www.flickr.com/services/rest/?api_key=5b48d1bc95a93593f2964f466bab5a4d&format=json&geo_context=2&lat=39.738453&license=0&lon=-104.984853&method=flickr.photos.search&nojsoncallback=1&per_page=1&radius=10&radius_units=10&tags=denver%20skyline
    body:
      encoding: US-ASCII
      string: ''
    headers:
      User-Agent:
      - Faraday v1.4.1
      Accept-Encoding:
      - gzip;q=1.0,deflate;q=0.6,identity;q=0.3
      Accept:
      - "*/*"
  response:
    status:
      code: 200
      message: OK
    headers:
      Content-Type:
      - application/json
      Content-Length:
      - '275'
      Connection:
      - keep-alive
      Date:
      - Thu, 06 May 2021 17:28:07 GMT
      Server:
      - Apache/2.4.46 (Ubuntu)
      Set-Cookie:
      - ccc=%7B%22needsConsent%22%3Afalse%2C%22managed%22%3A0%2C%22changed%22%3A0%2C%22info%22%3A%7B%22cookieBlock%22%3A%7B%22level%22%3A0%2C%22blockRan%22%3A0%7D%7D%7D;
        expires=Sat, 05-Jun-2021 17:28:07 GMT; Max-Age=2592000; path=/; domain=.flickr.com
      X-Content-Type-Options:
      - nosniff
      X-Frame-Options:
      - SAMEORIGIN
      X-Cache:
      - Miss from cloudfront
      Via:
      - 1.1 e466a87164c3f9591e3c8ac45a4b2075.cloudfront.net (CloudFront)
      X-Amz-Cf-Pop:
      - DEN52-C1
      X-Amz-Cf-Id:
      - Fw9mWYO2J1mRyO5JZqoQ6ZnfHScaSp-ccF9-5d9kxkj5aTKE0gKplw==
    body:
      encoding: UTF-8
      string: '{"photos":{"page":1,"pages":206,"perpage":1,"total":"206","photo":[{"id":"50948688121","owner":"91357526@N00","secret":"7511ec5d52","server":"65535","farm":66,"title":"Denver
        at Early Evening (6.46pm Pano), 15 July 2020","ispublic":1,"isfriend":0,"isfamily":0}]},"stat":"ok"}'
  recorded_at: Thu, 06 May 2021 17:28:07 GMT
- request:
    method: get
    uri: https://www.flickr.com/services/rest/?api_key=5b48d1bc95a93593f2964f466bab5a4d&format=json&method=flickr.urls.getUserProfile&nojsoncallback=1&user_id=91357526@N00
    body:
      encoding: US-ASCII
      string: ''
    headers:
      User-Agent:
      - Faraday v1.4.1
      Accept-Encoding:
      - gzip;q=1.0,deflate;q=0.6,identity;q=0.3
      Accept:
      - "*/*"
  response:
    status:
      code: 200
      message: OK
    headers:
      Content-Type:
      - application/json
      Content-Length:
      - '108'
      Connection:
      - keep-alive
      Date:
      - Thu, 06 May 2021 17:28:07 GMT
      Server:
      - Apache/2.4.46 (Ubuntu)
      Set-Cookie:
      - ccc=%7B%22needsConsent%22%3Afalse%2C%22managed%22%3A0%2C%22changed%22%3A0%2C%22info%22%3A%7B%22cookieBlock%22%3A%7B%22level%22%3A0%2C%22blockRan%22%3A0%7D%7D%7D;
        expires=Sat, 05-Jun-2021 17:28:07 GMT; Max-Age=2592000; path=/; domain=.flickr.com
      X-Content-Type-Options:
      - nosniff
      X-Frame-Options:
      - SAMEORIGIN
      X-Cache:
      - Miss from cloudfront
      Via:
      - 1.1 5c9c9b31572217b4c76b784333248ffe.cloudfront.net (CloudFront)
      X-Amz-Cf-Pop:
      - DEN52-C1
      X-Amz-Cf-Id:
      - g6AGvlXSgsX9QLjfRZs2bSZ8f6AHzDbpHNY289j2ox3DDVJKMxwEUg==
    body:
      encoding: UTF-8
      string: '{"user":{"nsid":"91357526@N00","url":"https:\/\/www.flickr.com\/people\/rock_chalk_jhawk_ku\/"},"stat":"ok"}'
  recorded_at: Thu, 06 May 2021 17:28:07 GMT
recorded_with: VCR 6.0.0
