---
http_interactions:
- request:
    method: get
    uri: https://www.flickr.com/services/rest/?api_key=5b48d1bc95a93593f2964f466bab5a4d&format=json&geo_context=2&lat=39.738453&license=0&lon=-104.984853&method=flickr.photos.search&nojsoncallback=1&per_page=1&radius=10&radius_units=10&tags=denver%20skyline
    body:
      encoding: US-ASCII
      string: ''
    headers:
      User-Agent:
      - Faraday v1.4.1
      Accept-Encoding:
      - gzip;q=1.0,deflate;q=0.6,identity;q=0.3
      Accept:
      - "*/*"
  response:
    status:
      code: 200
      message: OK
    headers:
      Content-Type:
      - application/json
      Content-Length:
      - '275'
      Connection:
      - keep-alive
      Date:
      - Thu, 06 May 2021 17:28:01 GMT
      Server:
      - Apache/2.4.46 (Ubuntu)
      Set-Cookie:
      - ccc=%7B%22needsConsent%22%3Afalse%2C%22managed%22%3A0%2C%22changed%22%3A0%2C%22info%22%3A%7B%22cookieBlock%22%3A%7B%22level%22%3A0%2C%22blockRan%22%3A0%7D%7D%7D;
        expires=Sat, 05-Jun-2021 17:28:01 GMT; Max-Age=2592000; path=/; domain=.flickr.com
      X-Content-Type-Options:
      - nosniff
      X-Frame-Options:
      - SAMEORIGIN
      X-Cache:
      - Miss from cloudfront
      Via:
      - 1.1 5539e869b7b6ea60eddee5f69c9a0d9c.cloudfront.net (CloudFront)
      X-Amz-Cf-Pop:
      - DEN52-C1
      X-Amz-Cf-Id:
      - StFGDisZD0GJdsrSDJX8f3-5Huv9g8LqL5x-nZ_DGS_MHGg1M2oY0w==
    body:
      encoding: UTF-8
      string: '{"photos":{"page":1,"pages":207,"perpage":1,"total":"207","photo":[{"id":"50948688121","owner":"91357526@N00","secret":"7511ec5d52","server":"65535","farm":66,"title":"Denver
        at Early Evening (6.46pm Pano), 15 July 2020","ispublic":1,"isfriend":0,"isfamily":0}]},"stat":"ok"}'
  recorded_at: Thu, 06 May 2021 17:28:01 GMT
- request:
    method: get
    uri: https://www.flickr.com/services/rest/?api_key=5b48d1bc95a93593f2964f466bab5a4d&format=json&method=flickr.urls.getUserProfile&nojsoncallback=1&user_id=91357526@N00
    body:
      encoding: US-ASCII
      string: ''
    headers:
      User-Agent:
      - Faraday v1.4.1
      Accept-Encoding:
      - gzip;q=1.0,deflate;q=0.6,identity;q=0.3
      Accept:
      - "*/*"
  response:
    status:
      code: 200
      message: OK
    headers:
      Content-Type:
      - application/json
      Content-Length:
      - '108'
      Connection:
      - keep-alive
      Date:
      - Thu, 06 May 2021 17:28:01 GMT
      Server:
      - Apache/2.4.46 (Ubuntu)
      Set-Cookie:
      - ccc=%7B%22needsConsent%22%3Afalse%2C%22managed%22%3A0%2C%22changed%22%3A0%2C%22info%22%3A%7B%22cookieBlock%22%3A%7B%22level%22%3A0%2C%22blockRan%22%3A0%7D%7D%7D;
        expires=Sat, 05-Jun-2021 17:28:01 GMT; Max-Age=2592000; path=/; domain=.flickr.com
      X-Content-Type-Options:
      - nosniff
      X-Frame-Options:
      - SAMEORIGIN
      X-Cache:
      - Miss from cloudfront
      Via:
      - 1.1 350e87fe323bf8d725a381e15f465f40.cloudfront.net (CloudFront)
      X-Amz-Cf-Pop:
      - DEN52-C1
      X-Amz-Cf-Id:
      - ftF1vFKGof1ptGKSq5npPkQd59xEOt1Bbzs0Sl1c-Bh6nXZXZe3fgQ==
    body:
      encoding: UTF-8
      string: '{"user":{"nsid":"91357526@N00","url":"https:\/\/www.flickr.com\/people\/rock_chalk_jhawk_ku\/"},"stat":"ok"}'
  recorded_at: Thu, 06 May 2021 17:28:01 GMT
recorded_with: VCR 6.0.0
